Copyright 1986-2019 Xilinx, Inc. All Rights Reserved.
------------------------------------------------------------------------------------------------------------------------------------------------------------------
| Tool Version : Vivado v.2019.2 (lin64) Build 2700185 Thu Oct 24 18:45:48 MDT 2019
| Date         : Fri Oct 25 02:10:33 2019
| Host         : xcosswbld07 running 64-bit Red Hat Enterprise Linux Workstation release 7.4 (Maipo)
| Command      : report_bus_skew -warn_on_violation -file zed_wrapper_bus_skew_routed.rpt -pb zed_wrapper_bus_skew_routed.pb -rpx zed_wrapper_bus_skew_routed.rpx
| Design       : zed_wrapper
| Device       : 7z020-clg484
| Speed File   : -1  PRODUCTION 1.11 2014-09-11
------------------------------------------------------------------------------------------------------------------------------------------------------------------

Bus Skew Report

No bus skew constraints

